
    "id" => [
        "key" => "id",
        "laravel_db_function" => "increments",
        "is_actual_field" => false,
        "filterable" => false,
        "upload" => true,
    ],
    "set_id" => [
        "category" => "metadata",
        "key" => "set_id",
        "laravel_db_function" => "string",
        "is_actual_field" => true,
        "trivial" => "Set ID",
        "filterable" => true,
        "comparator" => ["=","LIKE","<>"],
        "editable" => false,
    ],
    "operation_type" => [
        "category" => "metadata",
        "key" => "operation_type",
        "laravel_db_function" => "enum",
        "is_actual_field" => true,
        "choices" => ["eso","exo","pool"],
        "trivial" => "Operatie type",
        "filterable" => true,
        "comparator" => ["=","LIKE","<>"],
        "editable" => false,
    ],
    "uploaded_at" => [
        "category" => "metadata",
        "key" => "uploaded_at",
        "laravel_db_function" => "timestamp",
        "is_actual_field" => false,
        "trivial" => "Geüpload op",
        "filterable" => true,
        "comparator" => ["=",">","<",">=","<=","<>"],
        "editable" => false,
    ],
    "completed_at" => [
        "category" => "metadata",
        "key" => "completed_at",
        "laravel_db_function" => "timestamp",
        "is_actual_field" => true,
        "trivial" => "Compleet gemarkeerd op",
        "filterable" => true,
        "comparator" => ["=",">","<",">=","<=","<>"],
        "editable" => false,
    ],
    "timestamps" => [
        "category" => "metadata",
        "key" => "timestamps",
        "laravel_db_function" => "timestamps",
        "is_actual_field" => false,
        "filterable" => false,
        "upload" => true,
    ],
    "patientnummer" => [
        "category" => "personalia",
        "key" => "patientnummer",
        "laravel_db_function" => "string",
        "is_actual_field" => true,
        "trivial" => "Patiëntnummer",
        "faker" => ["randomNumber",8],
        "filterable" => true,
        "comparator" => ["=","LIKE","<>"],
        "required_for" => ["save"],
    ],
    "patientnaam" => [
        "category" => "personalia",
        "key" => "patientnaam",
        "laravel_db_function" => "string",
        "is_actual_field" => true,
        "trivial" => "Patiënt naam",
        "faker" => "name",
        "filterable" => true,
        "comparator" => ["=","LIKE","<>"],
        "required_for" => ["save"],
    ],
    "geboortedatum" => [
        "category" => "personalia",
        "key" => "geboortedatum",
        "laravel_db_function" => "date",
        "is_actual_field" => true,
        "trivial" => "Geboortedatum",
        "faker" => ["date","Y-m-d"],
        "filterable" => true,
        "comparator" => ["=",">","<",">=","<=","<>"],
        "upload" => true,
        "required_for" => ["save","upload"],
    ],
    "geslacht" => [
        "category" => "personalia",
        "key" => "geslacht",
        "laravel_db_function" => "enum",
        "is_actual_field" => true,
        "choices" => ["M","V"],
        "trivial" => "Geslacht",
        "faker" => ["randomElement", ["M","V"]],
        "filterable" => true,
        "comparator" => ["=","<>"],
        "required_for" => ["save"],
    ],
    "operatiedatum" => [
        "category" => "personalia",
        "key" => "operatiedatum",
        "laravel_db_function" => "date",
        "is_actual_field" => true,
        "trivial" => "Datum OK",
        "faker" => ["date","Y-m-d"],
        "filterable" => true,
        "comparator" => ["=",">","<",">=","<=","<>"],
        "upload" => true,
        "required_for" => ["save","upload"],
    ],
    "opmerking_bij_personalia" => [
        "category" => "personalia",
        "key" => "opmerking_bij_personalia",
        "laravel_db_function" => "text",
        "is_actual_field" => true,
        "trivial" => "Opmerkingen",
        "faker" => ["paragraph",3],
        "filterable" => true,
        "comparator" => ["=","LIKE","<>"],
    ],
    "verwijzer" => [
        "category" => "personalia",
        "key" => "verwijzer",
        "laravel_db_function" => "string",
        "is_actual_field" => true,
        "trivial" => "Verwijzer",
        "faker" => "name",
        "filterable" => true,
        "comparator" => ["=","LIKE","<>"],
    ],
    "oogarts_code" => [
        "category" => "personalia",
        "key" => "oogarts_code",
        "laravel_db_function" => "string",
        "is_actual_field" => true,
        "trivial" => "Oogarts",
        "faker" => "name",
        "filterable" => true,
        "comparator" => ["=","LIKE","<>"],
    ],
    "orthoptist_code" => [
        "category" => "personalia",
        "key" => "orthoptist_code",
        "laravel_db_function" => "string",
        "is_actual_field" => true,
        "trivial" => "Orthoptist",
        "faker" => "name",
        "filterable" => true,
        "comparator" => ["=","LIKE","<>"],
    ],
    "OK_volgnummer" => [
        "category" => "personalia",
        "key" => "OK_volgnummer",
        "laravel_db_function" => "enum",
        "is_actual_field" => true,
        "choices" => [1,2,3,4,5,6,7,8,9,10],
        "trivial" => "Volgnummer (uw n-de operatie in deze patient)",
        "faker" => ["randomElement", [1,2,3,4,5,6,7,8,9,10]],
        "comparator" => ["=",">","<",">=","<=","<>"],
        "minimum_faker" => 1,
        "maximum_faker" => 10,
    ],
    "type_scheelzien" => [
        "category" => "prognostisch_basis",
        "key" => "type_scheelzien",
        "laravel_db_function" => "enum",
        "is_actual_field" => true,
        "choices" => ["soort scheelzien: referentieterm","niet gespecificeerd: strabismus NNO ","esodeviaties: esotropie concomitant: NNO","esodeviaties: esotropie concomitant: normosensorisch / late onset","esodeviaties: esotropie concomitant: partieel accommodatief","esodeviaties: esotropie concomitant: infantiel strabismus syndroom","esodeviaties: esotropie concomitant: nystagmus blockage syndroom","esodeviaties: esotropie concomitant: postoperatief consecutief","esodeviaties: esotropie concomitant: cyclisch","esodeviaties: esoforie","esodeviaties: accomodatieve esotropie","esodeviaties: intermitterende esotropie","esodeviaties: convergentiespasme","esodeviaties: divergentieparalyse","eXodeviaties: exotropie concomitant: NNO","eXodeviaties: exotropie concomitant: gerelateerd aan accommodatie","eXodeviaties: exotropie concomitant: divergentie excess","eXodeviaties: exotropie concomitant: infantiel","eXodeviaties: exotropie concomitant: consecutief","eXodeviaties: intermitterende exotropie","eXodeviaties: exoforie","eXodeviaties: convergentieverlamming","eXodeviaties: convergentie-insufficientie","cycloverticale deviaties: hypertropie","cycloverticale deviaties: hyperforie","cycloverticale deviaties: cyclotropie","overige deviaties: A-patroon-strabismus","overige deviaties: V-patroon-strabismus","overige deviaties: dissociated vertical deviation strabismus","paralytische deviaties: paralytische deviaties NNO","paralytische deviaties: pupilsparende verlamming van nervus oculomotorius","paralytische deviaties: totale verlamming van nervus oculomotorius","paralytische deviaties: verlamming van nervus trochlearis","paralytische deviaties: verlamming van nervus abducens","paralytische deviaties: externe oftalmoplegie","paralytische deviaties: totale oftalmoplegie","paralytische deviaties: chronisch progressieve externe oftalmoplegie","paralytische deviaties: strabismus paralyticus","paralytische deviaties: centrale blikparese","mechanische deviaties: mechanische strabismus NNO","mechanische deviaties: mechanische strabismus (niet Graves)","mechanische deviaties: scheelzien bij Graves opthalmopathie","syndromaal scheelzien: syndroom van Brown","syndromaal scheelzien: strabismus bij muscolofaciale aandoening","syndromaal scheelzien: syndroom van Duane","syndromaal scheelzien: internucleaire oftalmoplegie","syndromaal scheelzien: syndroom van Mobius","syndromaal scheelzien: myokymie van obliquus superior","syndromaal scheelzien: oculomotore apraxie","syndromaal scheelzien: oculaire myasthenie","syndromaal scheelzien: oculaire neuromyotonie","syndromaal scheelzien: syndroom van Parinaud","nystagmus: nystagmus"],
        "trivial" => "Type scheelzien",
        "faker" => ["randomElement", ["soort scheelzien: referentieterm","niet gespecificeerd: strabismus NNO ","esodeviaties: esotropie concomitant: NNO","esodeviaties: esotropie concomitant: normosensorisch / late onset","esodeviaties: esotropie concomitant: partieel accommodatief","esodeviaties: esotropie concomitant: infantiel strabismus syndroom","esodeviaties: esotropie concomitant: nystagmus blockage syndroom","esodeviaties: esotropie concomitant: postoperatief consecutief","esodeviaties: esotropie concomitant: cyclisch","esodeviaties: esoforie","esodeviaties: accomodatieve esotropie","esodeviaties: intermitterende esotropie","esodeviaties: convergentiespasme","esodeviaties: divergentieparalyse","eXodeviaties: exotropie concomitant: NNO","eXodeviaties: exotropie concomitant: gerelateerd aan accommodatie","eXodeviaties: exotropie concomitant: divergentie excess","eXodeviaties: exotropie concomitant: infantiel","eXodeviaties: exotropie concomitant: consecutief","eXodeviaties: intermitterende exotropie","eXodeviaties: exoforie","eXodeviaties: convergentieverlamming","eXodeviaties: convergentie-insufficientie","cycloverticale deviaties: hypertropie","cycloverticale deviaties: hyperforie","cycloverticale deviaties: cyclotropie","overige deviaties: A-patroon-strabismus","overige deviaties: V-patroon-strabismus","overige deviaties: dissociated vertical deviation strabismus","paralytische deviaties: paralytische deviaties NNO","paralytische deviaties: pupilsparende verlamming van nervus oculomotorius","paralytische deviaties: totale verlamming van nervus oculomotorius","paralytische deviaties: verlamming van nervus trochlearis","paralytische deviaties: verlamming van nervus abducens","paralytische deviaties: externe oftalmoplegie","paralytische deviaties: totale oftalmoplegie","paralytische deviaties: chronisch progressieve externe oftalmoplegie","paralytische deviaties: strabismus paralyticus","paralytische deviaties: centrale blikparese","mechanische deviaties: mechanische strabismus NNO","mechanische deviaties: mechanische strabismus (niet Graves)","mechanische deviaties: scheelzien bij Graves opthalmopathie","syndromaal scheelzien: syndroom van Brown","syndromaal scheelzien: strabismus bij muscolofaciale aandoening","syndromaal scheelzien: syndroom van Duane","syndromaal scheelzien: internucleaire oftalmoplegie","syndromaal scheelzien: syndroom van Mobius","syndromaal scheelzien: myokymie van obliquus superior","syndromaal scheelzien: oculomotore apraxie","syndromaal scheelzien: oculaire myasthenie","syndromaal scheelzien: oculaire neuromyotonie","syndromaal scheelzien: syndroom van Parinaud","nystagmus: nystagmus"]],
        "filterable" => true,
        "comparator" => ["=","LIKE","<>"],
        "required_for" => ["save","upload"],
    ],
    "aantal_eerdere_scheelziensoperaties" => [
        "category" => "prognostisch_basis",
        "key" => "aantal_eerdere_scheelziensoperaties",
        "laravel_db_function" => "integer",
        "is_actual_field" => true,
        "trivial" => "Aantal eerdere scheelziensoperaties",
        "faker" => ["randomNumber",1],
        "filterable" => true,
        "comparator" => ["=","LIKE","<>"],
        "required_for" => ["upload"],
    ],
    "systemische_aandoening" => [
        "category" => "prognostisch_uitgebreid",
        "key" => "systemische_aandoening",
        "laravel_db_function" => "boolean",
        "is_actual_field" => true,
        "trivial" => "Systemische aandoeningen",
        "faker" => "yesOrNo",
        "filterable" => true,
        "comparator" => ["=","<>"],
        "upload" => true,
    ],
    "andere_oogaandoening" => [
        "category" => "prognostisch_uitgebreid",
        "key" => "andere_oogaandoening",
        "laravel_db_function" => "boolean",
        "is_actual_field" => true,
        "trivial" => "Andere oogaandoeningen",
        "faker" => "yesOrNo",
        "filterable" => true,
        "comparator" => ["=","<>"],
        "upload" => true,
    ],
    "visus_OD" => [
        "category" => "prognostisch_uitgebreid",
        "key" => "visus_OD",
        "laravel_db_function" => "enum",
        "is_actual_field" => true,
        "choices" => [2.0,1.6,1.25,1.0,0.8,0.63,0.5,0.4,0.32,0.25,0.2,0.16,0.125,0.1,0.066,0.05,0.033,0.016,0.0033,0.001,0.0],
        "trivial" => "Visus OD",
        "faker" => ["randomElement", [2.0,1.6,1.25,1.0,0.8,0.63,0.5,0.4,0.32,0.25,0.2,0.16,0.125,0.1,0.066,0.05,0.033,0.016,0.0033,0.001,0.0]],
        "filterable" => true,
        "comparator" => ["=",">","<",">=","<=","<>"],
        "upload" => true,
    ],
    "visus_OS" => [
        "category" => "prognostisch_uitgebreid",
        "key" => "visus_OS",
        "laravel_db_function" => "enum",
        "is_actual_field" => true,
        "choices" => [2.0,1.6,1.25,1.0,0.8,0.63,0.5,0.4,0.32,0.25,0.2,0.16,0.125,0.1,0.066,0.05,0.033,0.016,0.0033,0.001,0.0],
        "trivial" => "Visus OS",
        "faker" => ["randomElement", [2.0,1.6,1.25,1.0,0.8,0.63,0.5,0.4,0.32,0.25,0.2,0.16,0.125,0.1,0.066,0.05,0.033,0.016,0.0033,0.001,0.0]],
        "filterable" => true,
        "comparator" => ["=",">","<",">=","<=","<>"],
        "upload" => true,
    ],
    "skiawaarde_sferisch_eq_OD" => [
        "category" => "prognostisch_uitgebreid",
        "key" => "skiawaarde_sferisch_eq_OD",
        "laravel_db_function" => "double",
        "is_actual_field" => true,
        "trivial" => "Skiawaarde OD (sferisch equivalent)",
        "faker" => "randomDouble",
        "filterable" => true,
        "comparator" => ["=",">","<",">=","<=","<>"],
        "upload" => true,
        "minimum_faker" => -10,
        "maximum_faker" => 10,
    ],
    "skiawaarde_sferisch_eq_OS" => [
        "category" => "prognostisch_uitgebreid",
        "key" => "skiawaarde_sferisch_eq_OS",
        "laravel_db_function" => "double",
        "is_actual_field" => true,
        "trivial" => "Skiawaarde OS (sferisch equivalent)",
        "faker" => "randomDouble",
        "filterable" => true,
        "comparator" => ["=",">","<",">=","<=","<>"],
        "upload" => true,
        "minimum_faker" => -10,
        "maximum_faker" => 10,
    ],
    "brilsterkte_sferisch_eq_OD" => [
        "category" => "prognostisch_uitgebreid",
        "key" => "brilsterkte_sferisch_eq_OD",
        "laravel_db_function" => "double",
        "is_actual_field" => true,
        "trivial" => "Brilsterkte OD (sferisch equivalent)",
        "faker" => "randomDouble",
        "filterable" => true,
        "comparator" => ["=",">","<",">=","<=","<>"],
        "upload" => true,
        "minimum_faker" => -10,
        "maximum_faker" => 10,
    ],
    "brilsterkte_sferisch_eq_OS" => [
        "category" => "prognostisch_uitgebreid",
        "key" => "brilsterkte_sferisch_eq_OS",
        "laravel_db_function" => "double",
        "is_actual_field" => true,
        "trivial" => "Brilsterkte OS (sferisch equivalent)",
        "faker" => "randomDouble",
        "filterable" => true,
        "comparator" => ["=",">","<",">=","<=","<>"],
        "upload" => true,
        "minimum_faker" => -10,
        "maximum_faker" => 10,
    ],
    "aslengte_OD" => [
        "category" => "prognostisch_uitgebreid",
        "key" => "aslengte_OD",
        "laravel_db_function" => "double",
        "is_actual_field" => true,
        "trivial" => "Aslengte OD",
        "faker" => "randomDouble",
        "filterable" => true,
        "comparator" => ["=",">","<",">=","<=","<>"],
        "upload" => true,
        "minimum_faker" => 17,
        "maximum_faker" => 30,
    ],
    "aslengte_OS" => [
        "category" => "prognostisch_uitgebreid",
        "key" => "aslengte_OS",
        "laravel_db_function" => "double",
        "is_actual_field" => true,
        "trivial" => "Aslengte OS",
        "faker" => "randomDouble",
        "filterable" => true,
        "comparator" => ["=",">","<",">=","<=","<>"],
        "upload" => true,
        "minimum_faker" => 17,
        "maximum_faker" => 30,
    ],
    "preop_hor_manifest_afstand" => [
        "category" => "preoperatieve_hoeken",
        "key" => "preop_hor_manifest_afstand",
        "laravel_db_function" => "degdpt",
        "is_actual_field" => true,
        "trivial" => "Horizontaal manifest op afstand (preoperatief)",
        "faker" => "randomDouble",
        "filterable" => true,
        "comparator" => ["=",">","<",">=","<=","<>"],
        "upload" => true,
        "minimum_faker" => -40,
        "maximum_faker" => 40,
    ],
    "preop_hor_manifest_nabij" => [
        "category" => "preoperatieve_hoeken",
        "key" => "preop_hor_ manifest_nabij",
        "laravel_db_function" => "degdpt",
        "is_actual_field" => true,
        "trivial" => "Horizontaal manifest nabij (preoperatief)",
        "faker" => "randomDouble",
        "filterable" => true,
        "comparator" => ["=",">","<",">=","<=","<>"],
        "upload" => true,
        "minimum_faker" => -40,
        "maximum_faker" => 40,
    ],
    "preop_hor_latent_afstand" => [
        "category" => "preoperatieve_hoeken",
        "key" => "preop_hor_latent_afstand",
        "laravel_db_function" => "degdpt",
        "is_actual_field" => true,
        "trivial" => "Horizontaal latent op afstand (preoperatief)",
        "faker" => "randomDouble",
        "filterable" => true,
        "comparator" => ["=",">","<",">=","<=","<>"],
        "upload" => true,
        "minimum_faker" => -40,
        "maximum_faker" => 40,
    ],
    "preop_hor_latent_nabij" => [
        "category" => "preoperatieve_hoeken",
        "key" => "preop_hor_latent_nabij",
        "laravel_db_function" => "degdpt",
        "is_actual_field" => true,
        "trivial" => "Horzontaal latent nabij (preoperatief)",
        "faker" => "randomDouble",
        "filterable" => true,
        "comparator" => ["=",">","<",">=","<=","<>"],
        "upload" => true,
        "minimum_faker" => -40,
        "maximum_faker" => 40,
    ],
    "preop_hor_manifest_bovenblik" => [
        "category" => "preoperatieve_hoeken",
        "key" => "preop_hor_ manifest_bovenblik",
        "laravel_db_function" => "degdpt",
        "is_actual_field" => true,
        "trivial" => "Horzontaal manifest in bovenblik (preoperatief)",
        "faker" => "randomDouble",
        "filterable" => true,
        "comparator" => ["=",">","<",">=","<=","<>"],
        "upload" => true,
        "minimum_faker" => -40,
        "maximum_faker" => 40,
    ],
    "preop_hor_manifest_benedenblik" => [
        "category" => "preoperatieve_hoeken",
        "key" => "preop_hor_manifest_benedenblik",
        "laravel_db_function" => "degdpt",
        "is_actual_field" => true,
        "trivial" => "Horizontaal manifest in benedenblik (preoperatief)",
        "faker" => "randomDouble",
        "filterable" => true,
        "comparator" => ["=",">","<",">=","<=","<>"],
        "upload" => true,
        "minimum_faker" => -40,
        "maximum_faker" => 40,
    ],
    "preop_ver_manifest_afstand" => [
        "category" => "preoperatieve_hoeken",
        "key" => "preop_ver_manifest_afstand",
        "laravel_db_function" => "degdpt",
        "is_actual_field" => true,
        "trivial" => "Verticaal manifest op afstand (preoperatief)",
        "faker" => "randomDouble",
        "filterable" => true,
        "comparator" => ["=",">","<",">=","<=","<>"],
        "upload" => true,
        "minimum_faker" => -40,
        "maximum_faker" => 40,
    ],
    "preop_ver_manifest_linksblik" => [
        "category" => "preoperatieve_hoeken",
        "key" => "preop_ver_manifest_linksblik",
        "laravel_db_function" => "degdpt",
        "is_actual_field" => true,
        "trivial" => "Verticaal manifest in linksblik (preoperatief)",
        "faker" => "randomDouble",
        "filterable" => true,
        "comparator" => ["=",">","<",">=","<=","<>"],
        "upload" => true,
        "minimum_faker" => -40,
        "maximum_faker" => 40,
    ],
    "preop_ver_manifest_rechtsblik" => [
        "category" => "preoperatieve_hoeken",
        "key" => "preop_ver_manifest_rechtsblik",
        "laravel_db_function" => "degdpt",
        "is_actual_field" => true,
        "trivial" => "Verticaal manifest in rechtsblik (preoperatief)",
        "faker" => "randomDouble",
        "filterable" => true,
        "comparator" => ["=",">","<",">=","<=","<>"],
        "upload" => true,
        "minimum_faker" => -40,
        "maximum_faker" => 40,
    ],
    "preop_cyclotropie" => [
        "category" => "preoperatieve_hoeken",
        "key" => "preop_cyclotropie",
        "laravel_db_function" => "degdpt",
        "is_actual_field" => true,
        "trivial" => "Cyclotropie (preoperatief)",
        "faker" => "randomDouble",
        "filterable" => true,
        "comparator" => ["=",">","<",">=","<=","<>"],
        "upload" => true,
        "minimum_faker" => -40,
        "maximum_faker" => 40,
    ],
    "preop_manifestatie" => [
        "category" => "preoperatieve_bevindingen",
        "key" => "preop_manifestatie",
        "laravel_db_function" => "enum",
        "is_actual_field" => true,
        "choices" => ["niet gespecificeerd","constant","intermitterend","latent","cyclisch"],
        "trivial" => "Manifestatie (preoperatief)",
        "faker" => ["randomElement", ["niet gespecificeerd","constant","intermitterend","latent","cyclisch"]],
        "filterable" => true,
        "comparator" => ["=","LIKE","<>"],
        "upload" => true,
        "required_for" => ["upload"],
    ],
    "preop_sensoriek" => [
        "category" => "preoperatieve_bevindingen",
        "key" => "preop_sensoriek",
        "laravel_db_function" => "enum",
        "is_actual_field" => true,
        "choices" => ["niet gespecificeerd","suppressie","fusie (op NRC of ARC)","stereozien (op NRC)","diplopie"],
        "trivial" => "Sensoriek (preoperatief)",
        "faker" => ["randomElement", ["niet gespecificeerd","suppressie","fusie (op NRC of ARC)","stereozien (op NRC)","diplopie"]],
        "filterable" => true,
        "comparator" => ["=","LIKE","<>"],
        "upload" => true,
        "required_for" => ["upload"],
    ],
    "OD_M_Rectus_Medialis_type" => [
        "category" => "chirurgie",
        "key" => "OD_M_Rectus_Medialis_type",
        "laravel_db_function" => "enum",
        "is_actual_field" => true,
        "choices" => ["recessie","resectie","op lusplaatsing","terugplaatsing / anteropositie","myectomie","obliquusrecessie = mediopositie","centrale tenotomie","plooi","Harada Ito","bovine pericardium interpositie","Faden","Yokoyama","transpositie naar temporaal","transpositie naar nasaal","transpositie naar superior","transpositie naar inferior","andere / overig"],
        "trivial" => "OD MRMed chirurgie type",
        "faker" => ["randomElement", ["recessie","resectie","op lusplaatsing","terugplaatsing / anteropositie","myectomie","obliquusrecessie = mediopositie","centrale tenotomie","plooi","Harada Ito","bovine pericardium interpositie","Faden","Yokoyama","transpositie naar temporaal","transpositie naar nasaal","transpositie naar superior","transpositie naar inferior","andere / overig"]],
        "filterable" => true,
        "comparator" => ["=","LIKE","<>"],
        "upload" => true,
    ],
    "OD_M_Rectus_Medialis_aantal_mm" => [
        "category" => "chirurgie",
        "key" => "OD_M_Rectus_Medialis_aantal_mm",
        "laravel_db_function" => "double",
        "is_actual_field" => true,
        "trivial" => "OD MRMed chirurgie aantal mm",
        "faker" => "randomDouble",
        "filterable" => true,
        "comparator" => ["=",">","<",">=","<=","<>"],
        "upload" => true,
        "maximum_faker" => 15,
    ],
    "OD_M_Rectus_Lateralis_type" => [
        "category" => "chirurgie",
        "key" => "OD_M_Rectus_Lateralis_type",
        "laravel_db_function" => "enum",
        "is_actual_field" => true,
        "choices" => ["recessie","resectie","op lusplaatsing","terugplaatsing / anteropositie","myectomie","obliquusrecessie = mediopositie","centrale tenotomie","plooi","Harada Ito","bovine pericardium interpositie","Faden","Yokoyama","transpositie naar temporaal","transpositie naar nasaal","transpositie naar superior","transpositie naar inferior","andere / overig"],
        "trivial" => "OD MRLat chirurgie type",
        "faker" => ["randomElement", ["recessie","resectie","op lusplaatsing","terugplaatsing / anteropositie","myectomie","obliquusrecessie = mediopositie","centrale tenotomie","plooi","Harada Ito","bovine pericardium interpositie","Faden","Yokoyama","transpositie naar temporaal","transpositie naar nasaal","transpositie naar superior","transpositie naar inferior","andere / overig"]],
        "filterable" => true,
        "comparator" => ["=","LIKE","<>"],
        "upload" => true,
    ],
    "OD_M_Rectus_Lateralis_aantal_mm" => [
        "category" => "chirurgie",
        "key" => "OD_M_Rectus_Lateralis_aantal_mm",
        "laravel_db_function" => "double",
        "is_actual_field" => true,
        "trivial" => "OD MRlat chirurgie aantal mm",
        "faker" => "randomDouble",
        "filterable" => true,
        "comparator" => ["=",">","<",">=","<=","<>"],
        "upload" => true,
        "maximum_faker" => 15,
    ],
    "OD_M_Rectus_Superior_type" => [
        "category" => "chirurgie",
        "key" => "OD_M_Rectus_Superior_type",
        "laravel_db_function" => "enum",
        "is_actual_field" => true,
        "choices" => ["recessie","resectie","op lusplaatsing","terugplaatsing / anteropositie","myectomie","obliquusrecessie = mediopositie","centrale tenotomie","plooi","Harada Ito","bovine pericardium interpositie","Faden","Yokoyama","transpositie naar temporaal","transpositie naar nasaal","transpositie naar superior","transpositie naar inferior","andere / overig"],
        "trivial" => "OD MRSup chirurgie type",
        "faker" => ["randomElement", ["recessie","resectie","op lusplaatsing","terugplaatsing / anteropositie","myectomie","obliquusrecessie = mediopositie","centrale tenotomie","plooi","Harada Ito","bovine pericardium interpositie","Faden","Yokoyama","transpositie naar temporaal","transpositie naar nasaal","transpositie naar superior","transpositie naar inferior","andere / overig"]],
        "filterable" => true,
        "comparator" => ["=","LIKE","<>"],
        "upload" => true,
    ],
    "OD_M_Rectus_Superior_aantal_mm" => [
        "category" => "chirurgie",
        "key" => "OD_M_Rectus_Superior_aantal_mm",
        "laravel_db_function" => "double",
        "is_actual_field" => true,
        "trivial" => "OD MRSup chirurgie aantal mm",
        "faker" => "randomDouble",
        "filterable" => true,
        "comparator" => ["=",">","<",">=","<=","<>"],
        "upload" => true,
        "maximum_faker" => 15,
    ],
    "OD_M_Rectus_Inferior_type" => [
        "category" => "chirurgie",
        "key" => "OD_M_Rectus_Inferior_type",
        "laravel_db_function" => "enum",
        "is_actual_field" => true,
        "choices" => ["recessie","resectie","op lusplaatsing","terugplaatsing / anteropositie","myectomie","obliquusrecessie = mediopositie","centrale tenotomie","plooi","Harada Ito","bovine pericardium interpositie","Faden","Yokoyama","transpositie naar temporaal","transpositie naar nasaal","transpositie naar superior","transpositie naar inferior","andere / overig"],
        "trivial" => "OD MRInf chirurgie type",
        "faker" => ["randomElement", ["recessie","resectie","op lusplaatsing","terugplaatsing / anteropositie","myectomie","obliquusrecessie = mediopositie","centrale tenotomie","plooi","Harada Ito","bovine pericardium interpositie","Faden","Yokoyama","transpositie naar temporaal","transpositie naar nasaal","transpositie naar superior","transpositie naar inferior","andere / overig"]],
        "filterable" => true,
        "comparator" => ["=","LIKE","<>"],
        "upload" => true,
    ],
    "OD_M_Rectus_Inferior_aantal_mm" => [
        "category" => "chirurgie",
        "key" => "OD_M_Rectus_Inferior_aantal_mm",
        "laravel_db_function" => "double",
        "is_actual_field" => true,
        "trivial" => "OD MRInf chirurgie aantal mm",
        "faker" => "randomDouble",
        "filterable" => true,
        "comparator" => ["=",">","<",">=","<=","<>"],
        "upload" => true,
        "maximum_faker" => 15,
    ],
    "OD_M_Obliquus_Superior_type" => [
        "category" => "chirurgie",
        "key" => "OD_M_Obliquus_Superior_type",
        "laravel_db_function" => "enum",
        "is_actual_field" => true,
        "choices" => ["recessie","resectie","op lusplaatsing","terugplaatsing / anteropositie","myectomie","obliquusrecessie = mediopositie","centrale tenotomie","plooi","Harada Ito","bovine pericardium interpositie","Faden","Yokoyama","transpositie naar temporaal","transpositie naar nasaal","transpositie naar superior","transpositie naar inferior","andere / overig"],
        "trivial" => "OD MOblSup chirurgie type",
        "faker" => ["randomElement", ["recessie","resectie","op lusplaatsing","terugplaatsing / anteropositie","myectomie","obliquusrecessie = mediopositie","centrale tenotomie","plooi","Harada Ito","bovine pericardium interpositie","Faden","Yokoyama","transpositie naar temporaal","transpositie naar nasaal","transpositie naar superior","transpositie naar inferior","andere / overig"]],
        "filterable" => true,
        "comparator" => ["=","LIKE","<>"],
        "upload" => true,
    ],
    "OD_M_Obliquus_Superior_aantal_mm" => [
        "category" => "chirurgie",
        "key" => "OD_M_Obliquus_Superior_aantal_mm",
        "laravel_db_function" => "double",
        "is_actual_field" => true,
        "trivial" => "OD MOblSup chirurgie aantal mm",
        "faker" => "randomDouble",
        "filterable" => true,
        "comparator" => ["=",">","<",">=","<=","<>"],
        "upload" => true,
        "maximum_faker" => 15,
    ],
    "OD_M_Obliquus_Inferior_type" => [
        "category" => "chirurgie",
        "key" => "OD_M_Obliquus_Inferior_type",
        "laravel_db_function" => "enum",
        "is_actual_field" => true,
        "choices" => ["recessie","resectie","op lusplaatsing","terugplaatsing / anteropositie","myectomie","obliquusrecessie = mediopositie","centrale tenotomie","plooi","Harada Ito","bovine pericardium interpositie","Faden","Yokoyama","transpositie naar temporaal","transpositie naar nasaal","transpositie naar superior","transpositie naar inferior","andere / overig"],
        "trivial" => "OD MOblInf chirurgie type",
        "faker" => ["randomElement", ["recessie","resectie","op lusplaatsing","terugplaatsing / anteropositie","myectomie","obliquusrecessie = mediopositie","centrale tenotomie","plooi","Harada Ito","bovine pericardium interpositie","Faden","Yokoyama","transpositie naar temporaal","transpositie naar nasaal","transpositie naar superior","transpositie naar inferior","andere / overig"]],
        "filterable" => true,
        "comparator" => ["=","LIKE","<>"],
        "upload" => true,
    ],
    "OD_M_Obliquus_Inferior_aantal_mm" => [
        "category" => "chirurgie",
        "key" => "OD_M_Obliquus_Inferior_aantal_mm",
        "laravel_db_function" => "double",
        "is_actual_field" => true,
        "trivial" => "OD MOblInf chirurgie aantal mm",
        "faker" => "randomDouble",
        "filterable" => true,
        "comparator" => ["=",">","<",">=","<=","<>"],
        "upload" => true,
        "maximum_faker" => 15,
    ],
    "OS_M_Rectus_Medialis_type" => [
        "category" => "chirurgie",
        "key" => "OS_M_Rectus_Medialis_type",
        "laravel_db_function" => "enum",
        "is_actual_field" => true,
        "choices" => ["recessie","resectie","op lusplaatsing","terugplaatsing / anteropositie","myectomie","obliquusrecessie = mediopositie","centrale tenotomie","plooi","Harada Ito","bovine pericardium interpositie","Faden","Yokoyama","transpositie naar temporaal","transpositie naar nasaal","transpositie naar superior","transpositie naar inferior","andere / overig"],
        "trivial" => "OS MRMed chirurgie type",
        "faker" => ["randomElement", ["recessie","resectie","op lusplaatsing","terugplaatsing / anteropositie","myectomie","obliquusrecessie = mediopositie","centrale tenotomie","plooi","Harada Ito","bovine pericardium interpositie","Faden","Yokoyama","transpositie naar temporaal","transpositie naar nasaal","transpositie naar superior","transpositie naar inferior","andere / overig"]],
        "filterable" => true,
        "comparator" => ["=","LIKE","<>"],
        "upload" => true,
    ],
    "OS_M_Rectus_Medialis_aantal_mm" => [
        "category" => "chirurgie",
        "key" => "OS_M_Rectus_Medialis_aantal_mm",
        "laravel_db_function" => "double",
        "is_actual_field" => true,
        "trivial" => "OS MRMed chirurgie aantal mm",
        "faker" => "randomDouble",
        "filterable" => true,
        "comparator" => ["=",">","<",">=","<=","<>"],
        "upload" => true,
        "maximum_faker" => 15,
    ],
    "OS_M_Rectus_Lateralis_type" => [
        "category" => "chirurgie",
        "key" => "OS_M_Rectus_Lateralis_type",
        "laravel_db_function" => "enum",
        "is_actual_field" => true,
        "choices" => ["recessie","resectie","op lusplaatsing","terugplaatsing / anteropositie","myectomie","obliquusrecessie = mediopositie","centrale tenotomie","plooi","Harada Ito","bovine pericardium interpositie","Faden","Yokoyama","transpositie naar temporaal","transpositie naar nasaal","transpositie naar superior","transpositie naar inferior","andere / overig"],
        "trivial" => "OS MRLat chirurgie type",
        "faker" => ["randomElement", ["recessie","resectie","op lusplaatsing","terugplaatsing / anteropositie","myectomie","obliquusrecessie = mediopositie","centrale tenotomie","plooi","Harada Ito","bovine pericardium interpositie","Faden","Yokoyama","transpositie naar temporaal","transpositie naar nasaal","transpositie naar superior","transpositie naar inferior","andere / overig"]],
        "filterable" => true,
        "comparator" => ["=","LIKE","<>"],
        "upload" => true,
    ],
    "OS_M_Rectus_Lateralis_aantal_mm" => [
        "category" => "chirurgie",
        "key" => "OS_M_Rectus_Lateralis_aantal_mm",
        "laravel_db_function" => "double",
        "is_actual_field" => true,
        "trivial" => "OS MRlat chirurgie aantal mm",
        "faker" => "randomDouble",
        "filterable" => true,
        "comparator" => ["=",">","<",">=","<=","<>"],
        "upload" => true,
        "maximum_faker" => 15,
    ],
    "OS_M_Rectus_Superior_type" => [
        "category" => "chirurgie",
        "key" => "OS_M_Rectus_Superior_type",
        "laravel_db_function" => "enum",
        "is_actual_field" => true,
        "choices" => ["recessie","resectie","op lusplaatsing","terugplaatsing / anteropositie","myectomie","obliquusrecessie = mediopositie","centrale tenotomie","plooi","Harada Ito","bovine pericardium interpositie","Faden","Yokoyama","transpositie naar temporaal","transpositie naar nasaal","transpositie naar superior","transpositie naar inferior","andere / overig"],
        "trivial" => "OS MRSup chirurgie type",
        "faker" => ["randomElement", ["recessie","resectie","op lusplaatsing","terugplaatsing / anteropositie","myectomie","obliquusrecessie = mediopositie","centrale tenotomie","plooi","Harada Ito","bovine pericardium interpositie","Faden","Yokoyama","transpositie naar temporaal","transpositie naar nasaal","transpositie naar superior","transpositie naar inferior","andere / overig"]],
        "filterable" => true,
        "comparator" => ["=","LIKE","<>"],
        "upload" => true,
    ],
    "OS_M_Rectus_Superior_aantal_mm" => [
        "category" => "chirurgie",
        "key" => "OS_M_Rectus_Superior_aantal_mm",
        "laravel_db_function" => "double",
        "is_actual_field" => true,
        "trivial" => "OS MRSup chirurgie aantal mm",
        "faker" => "randomDouble",
        "filterable" => true,
        "comparator" => ["=",">","<",">=","<=","<>"],
        "upload" => true,
        "maximum_faker" => 15,
    ],
    "OS_M_Rectus_Inferior_type" => [
        "category" => "chirurgie",
        "key" => "OS_M_Rectus_Inferior_type",
        "laravel_db_function" => "enum",
        "is_actual_field" => true,
        "choices" => ["recessie","resectie","op lusplaatsing","terugplaatsing / anteropositie","myectomie","obliquusrecessie = mediopositie","centrale tenotomie","plooi","Harada Ito","bovine pericardium interpositie","Faden","Yokoyama","transpositie naar temporaal","transpositie naar nasaal","transpositie naar superior","transpositie naar inferior","andere / overig"],
        "trivial" => "OS MRInf chirurgie type",
        "faker" => ["randomElement", ["recessie","resectie","op lusplaatsing","terugplaatsing / anteropositie","myectomie","obliquusrecessie = mediopositie","centrale tenotomie","plooi","Harada Ito","bovine pericardium interpositie","Faden","Yokoyama","transpositie naar temporaal","transpositie naar nasaal","transpositie naar superior","transpositie naar inferior","andere / overig"]],
        "filterable" => true,
        "comparator" => ["=","LIKE","<>"],
        "upload" => true,
    ],
    "OS_M_Rectus_Inferior_aantal_mm" => [
        "category" => "chirurgie",
        "key" => "OS_M_Rectus_Inferior_aantal_mm",
        "laravel_db_function" => "double",
        "is_actual_field" => true,
        "trivial" => "OS MRInf chirurgie aantal mm",
        "faker" => "randomDouble",
        "filterable" => true,
        "comparator" => ["=",">","<",">=","<=","<>"],
        "upload" => true,
        "maximum_faker" => 15,
    ],
    "OS_M_Obliquus_Superior_type" => [
        "category" => "chirurgie",
        "key" => "OS_M_Obliquus_Superior_type",
        "laravel_db_function" => "enum",
        "is_actual_field" => true,
        "choices" => ["recessie","resectie","op lusplaatsing","terugplaatsing / anteropositie","myectomie","obliquusrecessie = mediopositie","centrale tenotomie","plooi","Harada Ito","bovine pericardium interpositie","Faden","Yokoyama","transpositie naar temporaal","transpositie naar nasaal","transpositie naar superior","transpositie naar inferior","andere / overig"],
        "trivial" => "OS MOblSup chirurgie type",
        "faker" => ["randomElement", ["recessie","resectie","op lusplaatsing","terugplaatsing / anteropositie","myectomie","obliquusrecessie = mediopositie","centrale tenotomie","plooi","Harada Ito","bovine pericardium interpositie","Faden","Yokoyama","transpositie naar temporaal","transpositie naar nasaal","transpositie naar superior","transpositie naar inferior","andere / overig"]],
        "filterable" => true,
        "comparator" => ["=","LIKE","<>"],
        "upload" => true,
    ],
    "OS_M_Obliquus_Superior_aantal_mm" => [
        "category" => "chirurgie",
        "key" => "OS_M_Obliquus_Superior_aantal_mm",
        "laravel_db_function" => "double",
        "is_actual_field" => true,
        "trivial" => "OS MOblSup chirurgie aantal mm",
        "faker" => "randomDouble",
        "filterable" => true,
        "comparator" => ["=",">","<",">=","<=","<>"],
        "upload" => true,
        "maximum_faker" => 15,
    ],
    "OS_M_Obliquus_Inferior_type" => [
        "category" => "chirurgie",
        "key" => "OS_M_Obliquus_Inferior_type",
        "laravel_db_function" => "enum",
        "is_actual_field" => true,
        "choices" => ["recessie","resectie","op lusplaatsing","terugplaatsing / anteropositie","myectomie","obliquusrecessie = mediopositie","centrale tenotomie","plooi","Harada Ito","bovine pericardium interpositie","Faden","Yokoyama","transpositie naar temporaal","transpositie naar nasaal","transpositie naar superior","transpositie naar inferior","andere / overig"],
        "trivial" => "OS MOblInf chirurgie type",
        "faker" => ["randomElement", ["recessie","resectie","op lusplaatsing","terugplaatsing / anteropositie","myectomie","obliquusrecessie = mediopositie","centrale tenotomie","plooi","Harada Ito","bovine pericardium interpositie","Faden","Yokoyama","transpositie naar temporaal","transpositie naar nasaal","transpositie naar superior","transpositie naar inferior","andere / overig"]],
        "filterable" => true,
        "comparator" => ["=","LIKE","<>"],
        "upload" => true,
    ],
    "OS_M_Obliquus_Inferior_aantal_mm" => [
        "category" => "chirurgie",
        "key" => "OS_M_Obliquus_Inferior_aantal_mm",
        "laravel_db_function" => "double",
        "is_actual_field" => true,
        "trivial" => "OS MOblInf chirurgie aantal mm",
        "faker" => "randomDouble",
        "filterable" => true,
        "comparator" => ["=",">","<",">=","<=","<>"],
        "upload" => true,
        "maximum_faker" => 15,
    ],
    "doel_operatie" => [
        "category" => "chirurgie_uitgebreid",
        "key" => "doel_operatie",
        "laravel_db_function" => "enum",
        "is_actual_field" => true,
        "choices" => ["niet gespecificeerd","functioneel","reconstructief","combinatie / overig"],
        "trivial" => "Doel van de operatie",
        "faker" => ["randomElement", ["niet gespecificeerd","functioneel","reconstructief","combinatie / overig"]],
        "filterable" => true,
        "comparator" => ["=","LIKE","<>"],
        "upload" => true,
    ],
    "beoogde_hoek_postoperatief" => [
        "category" => "chirurgie_uitgebreid",
        "key" => "beoogde_hoek_postoperatief",
        "laravel_db_function" => "double",
        "is_actual_field" => true,
        "trivial" => "Beoogde hoek postoperatief",
        "faker" => "randomDouble",
        "filterable" => true,
        "comparator" => ["=",">","<",">=","<=","<>"],
        "upload" => true,
    ],
    "opmerking_bij_operatie" => [
        "category" => "chirurgie_uitgebreid",
        "key" => "opmerking_bij_operatie",
        "laravel_db_function" => "text",
        "is_actual_field" => true,
        "trivial" => "Opmerking bij de operatie",
        "faker" => ["paragraph",3],
        "filterable" => true,
        "comparator" => ["=","LIKE","<>"],
        "upload" => false,
    ],
    "perop_bloeding" => [
        "category" => "chirurgie_complicaties",
        "key" => "perop_bloeding",
        "laravel_db_function" => "boolean",
        "is_actual_field" => true,
        "trivial" => "Bloeding",
        "faker" => "yesOrNo",
        "filterable" => true,
        "comparator" => ["=","<>"],
        "upload" => true,
        "required_for" => ["upload"],
    ],
    "perop_perforatie" => [
        "category" => "chirurgie_complicaties",
        "key" => "perop_perforatie",
        "laravel_db_function" => "boolean",
        "is_actual_field" => true,
        "trivial" => "Perforatie",
        "faker" => "yesOrNo",
        "filterable" => true,
        "comparator" => ["=","<>"],
        "upload" => true,
        "required_for" => ["upload"],
    ],
    "perop_slipped_muscle" => [
        "category" => "chirurgie_complicaties",
        "key" => "perop_slipped_muscle",
        "laravel_db_function" => "boolean",
        "is_actual_field" => true,
        "trivial" => "Slipped muscle",
        "faker" => "yesOrNo",
        "filterable" => true,
        "comparator" => ["=","<>"],
        "upload" => true,
        "required_for" => ["upload"],
    ],
    "perop_cornea_erosie" => [
        "category" => "chirurgie_complicaties",
        "key" => "perop_cornea_erosie",
        "laravel_db_function" => "boolean",
        "is_actual_field" => true,
        "trivial" => "Cornea erosie",
        "faker" => "yesOrNo",
        "filterable" => true,
        "comparator" => ["=","<>"],
        "upload" => true,
        "required_for" => ["upload"],
    ],
    "perop_andere_oogheelkundig" => [
        "category" => "chirurgie_complicaties",
        "key" => "perop_andere_oogheelkundig",
        "laravel_db_function" => "boolean",
        "is_actual_field" => true,
        "trivial" => "Andere oogheelkundig",
        "faker" => "yesOrNo",
        "filterable" => true,
        "comparator" => ["=","<>"],
        "upload" => true,
        "required_for" => ["upload"],
    ],
    "perop_andere_systemisch" => [
        "category" => "chirurgie_complicaties",
        "key" => "perop_andere_systemisch",
        "laravel_db_function" => "boolean",
        "is_actual_field" => true,
        "trivial" => "Andere systemisch",
        "faker" => "yesOrNo",
        "filterable" => true,
        "comparator" => ["=","<>"],
        "upload" => true,
        "required_for" => ["upload"],
    ],
    "postop_hor_manifest_afstand" => [
        "category" => "follow_up_hoeken",
        "key" => "postop_hor_manifest_afstand",
        "laravel_db_function" => "degdpt",
        "is_actual_field" => true,
        "trivial" => "Horizontaal manifest op afstand (postoperatief)",
        "faker" => "randomDouble",
        "filterable" => true,
        "comparator" => ["=",">","<",">=","<=","<>"],
        "upload" => true,
        "minimum_faker" => -40,
        "maximum_faker" => 40,
    ],
    "postop_hor_manifest_nabij" => [
        "category" => "follow_up_hoeken",
        "key" => "postop_hor_ manifest_nabij",
        "laravel_db_function" => "degdpt",
        "is_actual_field" => true,
        "trivial" => "Horizontaal manifest nabij (postoperatief)",
        "faker" => "randomDouble",
        "filterable" => true,
        "comparator" => ["=",">","<",">=","<=","<>"],
        "upload" => true,
        "minimum_faker" => -40,
        "maximum_faker" => 40,
    ],
    "postop_hor_latent_afstand" => [
        "category" => "follow_up_hoeken",
        "key" => "postop_hor_latent_afstand",
        "laravel_db_function" => "degdpt",
        "is_actual_field" => true,
        "trivial" => "Horizontaal latent op afstand (postoperatief)",
        "faker" => "randomDouble",
        "filterable" => true,
        "comparator" => ["=",">","<",">=","<=","<>"],
        "upload" => true,
        "minimum_faker" => -40,
        "maximum_faker" => 40,
    ],
    "postop_hor_latent_nabij" => [
        "category" => "follow_up_hoeken",
        "key" => "postop_hor_latent_nabij",
        "laravel_db_function" => "degdpt",
        "is_actual_field" => true,
        "trivial" => "Horzontaal latent nabij (postoperatief)",
        "faker" => "randomDouble",
        "filterable" => true,
        "comparator" => ["=",">","<",">=","<=","<>"],
        "upload" => true,
        "minimum_faker" => -40,
        "maximum_faker" => 40,
    ],
    "postop_hor_manifest_bovenblik" => [
        "category" => "follow_up_hoeken",
        "key" => "postop_hor_ manifest_bovenblik",
        "laravel_db_function" => "degdpt",
        "is_actual_field" => true,
        "trivial" => "Horzontaal manifest in bovenblik (postoperatief)",
        "faker" => "randomDouble",
        "filterable" => true,
        "comparator" => ["=",">","<",">=","<=","<>"],
        "upload" => true,
        "minimum_faker" => -40,
        "maximum_faker" => 40,
    ],
    "postop_hor_manifest_benedenblik" => [
        "category" => "follow_up_hoeken",
        "key" => "postop_hor_manifest_benedenblik",
        "laravel_db_function" => "degdpt",
        "is_actual_field" => true,
        "trivial" => "Horizontaal manifest in benedenblik (postoperatief)",
        "faker" => "randomDouble",
        "filterable" => true,
        "comparator" => ["=",">","<",">=","<=","<>"],
        "upload" => true,
        "minimum_faker" => -40,
        "maximum_faker" => 40,
    ],
    "postop_ver_manifest_afstand" => [
        "category" => "follow_up_hoeken",
        "key" => "postop_ver_manifest_afstand",
        "laravel_db_function" => "degdpt",
        "is_actual_field" => true,
        "trivial" => "Verticaal manifest op afstand (postoperatief)",
        "faker" => "randomDouble",
        "filterable" => true,
        "comparator" => ["=",">","<",">=","<=","<>"],
        "upload" => true,
        "minimum_faker" => -40,
        "maximum_faker" => 40,
    ],
    "postop_ver_manifest_linksblik" => [
        "category" => "follow_up_hoeken",
        "key" => "postop_ver_manifest_linksblik",
        "laravel_db_function" => "degdpt",
        "is_actual_field" => true,
        "trivial" => "Verticaal manifest in linksblik (postoperatief)",
        "faker" => "randomDouble",
        "filterable" => true,
        "comparator" => ["=",">","<",">=","<=","<>"],
        "upload" => true,
        "minimum_faker" => -40,
        "maximum_faker" => 40,
    ],
    "postop_ver_manifest_rechtsblik" => [
        "category" => "follow_up_hoeken",
        "key" => "postop_ver_manifest_rechtsblik",
        "laravel_db_function" => "degdpt",
        "is_actual_field" => true,
        "trivial" => "Verticaal manifest in rechtsblik (postoperatief)",
        "faker" => "randomDouble",
        "filterable" => true,
        "comparator" => ["=",">","<",">=","<=","<>"],
        "upload" => true,
        "minimum_faker" => -40,
        "maximum_faker" => 40,
    ],
    "postop_cyclotropie" => [
        "category" => "follow_up_hoeken",
        "key" => "postop_cyclotropie",
        "laravel_db_function" => "degdpt",
        "is_actual_field" => true,
        "trivial" => "Cyclotropie (postoperatief)",
        "faker" => "randomDouble",
        "filterable" => true,
        "comparator" => ["=",">","<",">=","<=","<>"],
        "upload" => true,
        "minimum_faker" => -40,
        "maximum_faker" => 40,
    ],
    "postop_diplopie" => [
        "category" => "follow_up_complicaties",
        "key" => "postop_diplopie",
        "laravel_db_function" => "boolean",
        "is_actual_field" => true,
        "trivial" => "Diplopie",
        "faker" => "yesOrNo",
        "filterable" => true,
        "comparator" => ["=","<>"],
        "upload" => true,
        "required_for" => ["upload"],
    ],
    "postop_extraoculare_infectie" => [
        "category" => "follow_up_complicaties",
        "key" => "postop_extraoculare_infectie",
        "laravel_db_function" => "boolean",
        "is_actual_field" => true,
        "trivial" => "Extraoculare infectie",
        "faker" => "yesOrNo",
        "filterable" => true,
        "comparator" => ["=","<>"],
        "upload" => true,
        "required_for" => ["upload"],
    ],
    "postop_intraocularie_infectie" => [
        "category" => "follow_up_complicaties",
        "key" => "postop_intraocularie_infectie",
        "laravel_db_function" => "boolean",
        "is_actual_field" => true,
        "trivial" => "Intraocularie infectie",
        "faker" => "yesOrNo",
        "filterable" => true,
        "comparator" => ["=","<>"],
        "upload" => true,
        "required_for" => ["upload"],
    ],
    "postop_allergie" => [
        "category" => "follow_up_complicaties",
        "key" => "postop_allergie",
        "laravel_db_function" => "boolean",
        "is_actual_field" => true,
        "trivial" => "Allergie",
        "faker" => "yesOrNo",
        "filterable" => true,
        "comparator" => ["=","<>"],
        "upload" => true,
        "required_for" => ["upload"],
    ],
    "postop_conjunctivaproblemen" => [
        "category" => "follow_up_complicaties",
        "key" => "postop_conjunctivaproblemen",
        "laravel_db_function" => "boolean",
        "is_actual_field" => true,
        "trivial" => "Conjunctivaproblemen",
        "faker" => "yesOrNo",
        "filterable" => true,
        "comparator" => ["=","<>"],
        "upload" => true,
        "required_for" => ["upload"],
    ],
    "postop_corneaproblemen" => [
        "category" => "follow_up_complicaties",
        "key" => "postop_corneaproblemen",
        "laravel_db_function" => "boolean",
        "is_actual_field" => true,
        "trivial" => "Corneaproblemen",
        "faker" => "yesOrNo",
        "filterable" => true,
        "comparator" => ["=","<>"],
        "upload" => true,
        "required_for" => ["upload"],
    ],
    "postop_andere_oogheelkundig" => [
        "category" => "follow_up_complicaties",
        "key" => "postop_andere_oogheelkundig",
        "laravel_db_function" => "boolean",
        "is_actual_field" => true,
        "trivial" => "Andere oogheelkundig",
        "faker" => "yesOrNo",
        "filterable" => true,
        "comparator" => ["=","<>"],
        "upload" => true,
        "required_for" => ["upload"],
    ],
    "postop_andere_systemisch" => [
        "category" => "follow_up_complicaties",
        "key" => "postop_andere_systemisch",
        "laravel_db_function" => "boolean",
        "is_actual_field" => true,
        "trivial" => "Andere systemisch",
        "faker" => "yesOrNo",
        "filterable" => true,
        "comparator" => ["=","<>"],
        "upload" => true,
        "required_for" => ["upload"],
    ],
    "postop_manifestatie_scheelzien" => [
        "category" => "follow_up_uitgebreid",
        "key" => "postop_manifestatie_scheelzien",
        "laravel_db_function" => "enum",
        "is_actual_field" => true,
        "choices" => ["niet gespecificeerd","constant","intermitterend","latent","cyclisch"],
        "trivial" => "Manifestatie (postoperatief)",
        "faker" => ["randomElement", ["niet gespecificeerd","constant","intermitterend","latent","cyclisch"]],
        "filterable" => true,
        "comparator" => ["=","LIKE","<>"],
        "upload" => true,
    ],
    "postop_sensoriek" => [
        "category" => "follow_up_uitgebreid",
        "key" => "postop_sensoriek",
        "laravel_db_function" => "enum",
        "is_actual_field" => true,
        "choices" => ["niet gespecificeerd","suppressie","fusie (op NRC of ARC)","stereozien (op NRC)","diplopie"],
        "trivial" => "Sensoriek (postoperatief)",
        "faker" => ["randomElement", ["niet gespecificeerd","suppressie","fusie (op NRC of ARC)","stereozien (op NRC)","diplopie"]],
        "filterable" => true,
        "comparator" => ["=","LIKE","<>"],
        "upload" => true,
    ],
